VHDL2/test.vcd
$date
	Tue Apr 13 03:30:12 2021
$end
$version
	Icarus Verilog
$end
$timescale
	1ps
$end
$scope module tb $end
$var wire 4 ! z [4:1] $end
$var wire 1 " cout $end
$var reg 1 # cin $end
$var reg 1 $ clk $end
$var reg 4 % x [4:1] $end
$var reg 4 & y [4:1] $end
$scope module top1 $end
$var wire 1 # cin $end
$var wire 1 $ clk $end
$var wire 4 ' x [4:1] $end
$var wire 4 ( y [4:1] $end
$var wire 1 ) z4o $end
$var wire 1 * z4 $end
$var wire 1 + z3o $end
$var wire 1 , z3 $end
$var wire 1 - z2o $end
$var wire 1 . z2 $end
$var wire 1 / z1o $end
$var wire 1 0 z1 $end
$var wire 1 1 y4in $end
$var wire 1 2 y3in $end
$var wire 1 3 y2in $end
$var wire 1 4 y1in $end
$var wire 1 5 x4in $end
$var wire 1 6 x3in $end
$var wire 1 7 x2in $end
$var wire 1 8 x1in $end
$var wire 1 9 coutoo $end
$var wire 1 : couto $end
$var wire 1 ; cinin $end
$var reg 1 " cout $end
$var reg 4 < z [4:1] $end
$scope module cla1 $end
$var wire 1 = c3 $end
$var wire 1 > c4 $end
$var wire 1 ? cinnot $end
$var wire 1 9 cout $end
$var wire 1 @ go $end
$var wire 1 A gonot $end
$var wire 1 B n1 $end
$var wire 1 C o1 $end
$var wire 1 D o2 $end
$var wire 1 E o3 $end
$var wire 1 F o4 $end
$var wire 1 G o5 $end
$var wire 1 H po $end
$var wire 1 I ponot $end
$var wire 1 / z1 $end
$var wire 1 - z2 $end
$var wire 1 + z3 $end
$var wire 1 ) z4 $end
$var wire 1 1 y4 $end
$var wire 1 2 y3 $end
$var wire 1 3 y2 $end
$var wire 1 4 y1 $end
$var wire 1 5 x4 $end
$var wire 1 6 x3 $end
$var wire 1 7 x2 $end
$var wire 1 8 x1 $end
$var wire 1 J p4 $end
$var wire 1 K p3 $end
$var wire 1 L p2 $end
$var wire 1 M p1 $end
$var wire 1 N n4 $end
$var wire 1 O n3 $end
$var wire 1 P n2 $end
$var wire 1 Q l4 $end
$var wire 1 R l3 $end
$var wire 1 S l2 $end
$var wire 1 T k4 $end
$var wire 1 U k3 $end
$var wire 1 V k2 $end
$var wire 1 W k1 $end
$var wire 1 X g4 $end
$var wire 1 Y g3 $end
$var wire 1 Z g2 $end
$var wire 1 [ g1 $end
$var wire 1 ; cin $end
$scope module clg2 $end
$var wire 1 S l $end
$var wire 1 P n $end
$var wire 1 \ o $end
$var wire 1 L p1 $end
$var wire 1 M p0 $end
$var wire 1 Z g1 $end
$var wire 1 [ g0 $end
$upscope $end
$scope module clg3 $end
$var wire 1 R l $end
$var wire 1 O n $end
$var wire 1 ] o $end
$var wire 1 K p1 $end
$var wire 1 L p0 $end
$var wire 1 Y g1 $end
$var wire 1 Z g0 $end
$upscope $end
$scope module clg4 $end
$var wire 1 Q l $end
$var wire 1 N n $end
$var wire 1 ^ o $end
$var wire 1 J p1 $end
$var wire 1 K p0 $end
$var wire 1 X g1 $end
$var wire 1 Y g0 $end
$upscope $end
$scope module pg1 $end
$var wire 1 [ g $end
$var wire 1 W k $end
$var wire 1 M p $end
$var wire 1 4 y $end
$var wire 1 8 x $end
$upscope $end
$scope module pg2 $end
$var wire 1 Z g $end
$var wire 1 V k $end
$var wire 1 L p $end
$var wire 1 3 y $end
$var wire 1 7 x $end
$upscope $end
$scope module pg3 $end
$var wire 1 Y g $end
$var wire 1 U k $end
$var wire 1 K p $end
$var wire 1 2 y $end
$var wire 1 6 x $end
$upscope $end
$scope module pg4 $end
$var wire 1 X g $end
$var wire 1 T k $end
$var wire 1 J p $end
$var wire 1 1 y $end
$var wire 1 5 x $end
$upscope $end
$upscope $end
$scope module ffcin $end
$var wire 1 # D $end
$var wire 1 _ Dnot $end
$var wire 1 ; Q $end
$var wire 1 ` Qbar $end
$var wire 1 $ clk $end
$var wire 1 a o1 $end
$var wire 1 b o2 $end
$upscope $end
$scope module ffcout $end
$var wire 1 9 D $end
$var wire 1 c Dnot $end
$var wire 1 : Q $end
$var wire 1 d Qbar $end
$var wire 1 $ clk $end
$var wire 1 e o1 $end
$var wire 1 f o2 $end
$upscope $end
$scope module ffx1 $end
$var wire 1 g D $end
$var wire 1 h Dnot $end
$var wire 1 8 Q $end
$var wire 1 i Qbar $end
$var wire 1 $ clk $end
$var wire 1 j o1 $end
$var wire 1 k o2 $end
$upscope $end
$scope module ffx2 $end
$var wire 1 l D $end
$var wire 1 m Dnot $end
$var wire 1 7 Q $end
$var wire 1 n Qbar $end
$var wire 1 $ clk $end
$var wire 1 o o1 $end
$var wire 1 p o2 $end
$upscope $end
$scope module ffx3 $end
$var wire 1 q D $end
$var wire 1 r Dnot $end
$var wire 1 6 Q $end
$var wire 1 s Qbar $end
$var wire 1 $ clk $end
$var wire 1 t o1 $end
$var wire 1 u o2 $end
$upscope $end
$scope module ffx4 $end
$var wire 1 v D $end
$var wire 1 w Dnot $end
$var wire 1 5 Q $end
$var wire 1 x Qbar $end
$var wire 1 $ clk $end
$var wire 1 y o1 $end
$var wire 1 z o2 $end
$upscope $end
$scope module ffy1 $end
$var wire 1 { D $end
$var wire 1 | Dnot $end
$var wire 1 4 Q $end
$var wire 1 } Qbar $end
$var wire 1 $ clk $end
$var wire 1 ~ o1 $end
$var wire 1 !" o2 $end
$upscope $end
$scope module ffy2 $end
$var wire 1 "" D $end
$var wire 1 #" Dnot $end
$var wire 1 3 Q $end
$var wire 1 $" Qbar $end
$var wire 1 $ clk $end
$var wire 1 %" o1 $end
$var wire 1 &" o2 $end
$upscope $end
$scope module ffy3 $end
$var wire 1 '" D $end
$var wire 1 (" Dnot $end
$var wire 1 2 Q $end
$var wire 1 )" Qbar $end
$var wire 1 $ clk $end
$var wire 1 *" o1 $end
$var wire 1 +" o2 $end
$upscope $end
$scope module ffy4 $end
$var wire 1 ," D $end
$var wire 1 -" Dnot $end
$var wire 1 1 Q $end
$var wire 1 ." Qbar $end
$var wire 1 $ clk $end
$var wire 1 /" o1 $end
$var wire 1 0" o2 $end
$upscope $end
$scope module ffz1 $end
$var wire 1 / D $end
$var wire 1 1" Dnot $end
$var wire 1 0 Q $end
$var wire 1 2" Qbar $end
$var wire 1 $ clk $end
$var wire 1 3" o1 $end
$var wire 1 4" o2 $end
$upscope $end
$scope module ffz2 $end
$var wire 1 - D $end
$var wire 1 5" Dnot $end
$var wire 1 . Q $end
$var wire 1 6" Qbar $end
$var wire 1 $ clk $end
$var wire 1 7" o1 $end
$var wire 1 8" o2 $end
$upscope $end
$scope module ffz3 $end
$var wire 1 + D $end
$var wire 1 9" Dnot $end
$var wire 1 , Q $end
$var wire 1 :" Qbar $end
$var wire 1 $ clk $end
$var wire 1 ;" o1 $end
$var wire 1 <" o2 $end
$upscope $end
$scope module ffz4 $end
$var wire 1 ) D $end
$var wire 1 =" Dnot $end
$var wire 1 * Q $end
$var wire 1 >" Qbar $end
$var wire 1 $ clk $end
$var wire 1 ?" o1 $end
$var wire 1 @" o2 $end
$upscope $end
$upscope $end
$upscope $end
$enddefinitions $end
#0
$dumpvars
1@"
1?"
x>"
x="
1<"
1;"
x:"
x9"
18"
17"
x6"
x5"
14"
13"
x2"
x1"
10"
1/"
x."
x-"
x,"
1+"
1*"
x)"
x("
x'"
1&"
1%"
x$"
x#"
x""
1!"
1~
x}
x|
x{
1z
1y
xx
xw
xv
1u
1t
xs
xr
xq
1p
1o
xn
xm
xl
1k
1j
xi
xh
xg
1f
1e
xd
xc
1b
1a
x`
x_
x^
x]
x\
x[
xZ
xY
xX
xW
xV
xU
xT
xS
xR
xQ
xP
xO
xN
xM
xL
xK
xJ
xI
xH
xG
xF
xE
xD
xC
xB
xA
x@
x?
x>
x=
bx <
x;
x:
x9
x8
x7
x6
x5
x4
x3
x2
x1
x0
x/
x.
x-
x,
x+
x*
x)
bx (
bx '
bx &
bx %
0$
x#
x"
bx !
$end
#3000
0"
0:
0,
0*
1d
b0 !
b0 <
1:"
1>"
00
0.
1c
12"
16"
19"
1="
09
0+
0)
0@
0H
11"
15"
0=
0>
1A
0F
1I
0E
0/
0-
0P
1\
0S
0O
1]
0R
0N
1^
0Q
0B
0W
1[
1M
0V
1Z
1L
0U
1Y
1K
0T
1X
1J
1C
04
03
02
01
08
07
06
05
0G
0D
1?
1}
1$"
1)"
1."
1i
1n
1s
1x
0;
1`
1|
1#"
1("
1-"
1h
1m
1r
1w
0b
1e
0f
0k
0p
0u
0z
0!"
0&"
0+"
00"
13"
04"
17"
08"
1;"
0<"
1?"
0@"
1_
0{
0""
0'"
0,"
0g
0l
0q
0v
1$
0#
b0 &
b0 (
b0 %
b0 '
#6000
1b
1f
1k
1p
1u
1z
1!"
1&"
1+"
10"
14"
18"
1<"
1@"
0$
#9000
02"
b1 !
b1 <
10
01"
03"
0`
1/
0?
1;
0f
0k
0p
0u
0z
0!"
0&"
0+"
00"
14"
08"
0<"
0@"
0_
0a
1$
1#
#12000
1a
1f
1k
1p
1u
1z
1!"
1&"
1+"
10"
13"
18"
1<"
1@"
0$
#15000
16"
b1 !
b1 <
0.
15"
17"
0-
0B
1?
1C
0;
0}
1W
0M
1`
14
0|
0b
0f
0k
0p
0u
0z
0~
1!"
0&"
0+"
00"
03"
08"
0<"
0@"
1_
1{
1$
0#
b1 &
b1 (
#18000
1b
1f
1k
1p
1u
1z
1~
1&"
1+"
10"
13"
18"
1<"
1@"
0$
#21000
06"
b10 !
b10 <
1.
00
05"
07"
12"
1-
04"
1B
11"
0C
0`
0/
0?
1;
0f
0k
0p
0u
0z
0~
0&"
0+"
00"
13"
18"
0<"
0@"
0_
0a
1$
1#
#24000
1a
1f
1k
1p
1u
1z
1~
1&"
1+"
10"
14"
17"
1<"
1@"
0$
#27000
1.
12"
b10 !
b10 <
06"
00
0B
18"
0W
1M
11"
13"
1C
05"
04
0/
1?
1-
0S
1}
0;
0$"
1V
0L
0!"
1`
13
1|
0#"
0b
0f
0k
0p
0u
0z
0%"
1&"
0+"
00"
04"
07"
0<"
0@"
1_
0{
1""
1$
0#
b10 &
b10 (
#30000
1b
1f
1k
1p
1u
1z
1!"
1%"
1+"
10"
14"
17"
1<"
1@"
0$
#33000
02"
b11 !
b11 <
10
01"
03"
0`
1/
0?
1;
0f
0k
0p
0u
0z
0!"
0%"
0+"
00"
14"
07"
0<"
0@"
0_
0a
1$
1#
#36000
1a
1f
1k
1p
1u
1z
1!"
1%"
1+"
10"
13"
17"
1<"
1@"
0$
#39000
06"
18"
05"
1-
0B
1?
1S
1C
0;
0}
1W
0M
1`
14
0|
0b
0f
0k
0p
0u
0z
0~
1!"
0%"
0+"
00"
03"
07"
0<"
0@"
1_
1{
1$
0#
b11 &
b11 (
#42000
1b
1f
1k
1p
1u
1z
1~
1%"
1+"
10"
13"
17"
1<"
1@"
0$
#45000
0.
16"
0:"
b100 !
b100 <
08"
1,
00
15"
09"
0;"
12"
0-
1+
04"
1B
1=
11"
0C
0`
1D
0/
0?
1;
0f
0k
0p
0u
0z
0~
0%"
0+"
00"
13"
17"
1<"
0@"
0_
0a
1$
1#
#48000
1a
1f
1k
1p
1u
1z
1~
1%"
1+"
10"
14"
18"
1;"
1@"
0$
#51000
1>"
0*
1="
1?"
12"
b100 !
b100 <
0:"
0)
0S
00
0B
1<"
0>
0W
1M
0V
1L
0=
11"
13"
1C
09"
0E
04
03
0D
0/
1?
1+
0R
1}
1$"
0;
0)"
1U
0K
0!"
0&"
1`
12
1|
1#"
0("
0b
0f
0k
0p
0u
0z
0*"
1+"
00"
04"
08"
0;"
0@"
1_
0{
0""
1'"
1$
0#
b100 &
b100 (
#54000
1b
1f
1k
1p
1u
1z
1!"
1&"
1*"
10"
14"
18"
1;"
1@"
0$
#57000
02"
b101 !
b101 <
10
01"
03"
0`
1/
0?
1;
0f
0k
0p
0u
0z
0!"
0&"
0*"
00"
14"
08"
0;"
0@"
0_
0a
1$
1#
#60000
1a
1f
1k
1p
1u
1z
1!"
1&"
1*"
10"
13"
18"
1;"
1@"
0$
#63000
16"
b101 !
b101 <
0.
15"
17"
0-
0B
1?
1C
0;
0}
1W
0M
1`
14
0|
0b
0f
0k
0p
0u
0z
0~
1!"
0&"
0*"
00"
03"
08"
0;"
0@"
1_
1{
1$
0#
b101 &
b101 (
#66000
1b
1f
1k
1p
1u
1z
1~
1&"
1*"
10"
13"
18"
1;"
1@"
0$
#69000
06"
b110 !
b110 <
1.
00
05"
07"
12"
1-
04"
1B
11"
0C
0`
0/
0?
1;
0f
0k
0p
0u
0z
0~
0&"
0*"
00"
13"
18"
0;"
0@"
0_
0a
1$
1#
#72000
1a
1f
1k
1p
1u
1z
1~
1&"
1*"
10"
14"
17"
1;"
1@"
0$
#75000
1>"
0*
1.
1="
1?"
12"
b110 !
b110 <
06"
0)
00
0B
18"
0>
0W
1M
11"
13"
1C
05"
0E
04
0/
1?
1-
1R
0S
1}
0;
0$"
1V
0L
0!"
1`
13
1|
0#"
0b
0f
0k
0p
0u
0z
0%"
1&"
0*"
00"
04"
07"
0;"
0@"
1_
0{
1""
1$
0#
b110 &
b110 (
#78000
1b
1f
1k
1p
1u
1z
1!"
1%"
1*"
10"
14"
17"
1;"
1@"
0$
#81000
02"
b111 !
b111 <
10
01"
03"
0`
1/
0?
1;
0f
0k
0p
0u
0z
0!"
0%"
0*"
00"
14"
07"
0;"
0@"
0_
0a
1$
1#
#84000
1a
1f
1k
1p
1u
1z
1!"
1%"
1*"
10"
13"
17"
1;"
1@"
0$
#87000
1>"
b111 !
b111 <
0*
06"
1="
1?"
18"
0)
05"
0>
1-
0E
0B
1?
1S
1C
0;
0}
1W
0M
1`
14
0|
0b
0f
0k
0p
0u
0z
0~
1!"
0%"
0*"
00"
03"
07"
0;"
0@"
1_
1{
1$
0#
b111 &
b111 (
#90000
1b
1f
1k
1p
1u
1z
1~
1%"
1*"
10"
13"
17"
1;"
1@"
0$
#93000
0>"
0.
1*
0,
16"
0="
0?"
1:"
b1000 !
b1000 <
08"
1)
0<"
00
15"
1>
19"
12"
0-
1E
0+
04"
1B
1=
11"
0C
0`
1D
0/
0?
1;
0f
0k
0p
0u
0z
0~
0%"
0*"
00"
13"
17"
1;"
1@"
0_
0a
1$
1#
#96000
1a
1f
1k
1p
1u
1z
1~
1%"
1*"
10"
14"
18"
1<"
1?"
0$
#99000
0>
1*
12"
b1000 !
b1000 <
0E
0>"
0S
0R
00
0B
1@"
0H
0W
1M
0V
1L
0U
1K
0=
11"
13"
1C
0="
1I
04
03
02
0D
0/
1?
1)
0Q
1}
1$"
1)"
0;
0."
1T
0J
0!"
0&"
0+"
1`
11
1|
1#"
1("
0-"
0b
0f
0k
0p
0u
0z
0/"
10"
04"
08"
0<"
0?"
1_
0{
0""
0'"
1,"
1$
0#
b1000 &
b1000 (
#102000
1b
1f
1k
1p
1u
1z
1!"
1&"
1+"
1/"
14"
18"
1<"
1?"
0$
#105000
02"
b1001 !
b1001 <
10
01"
03"
0`
1/
0?
1;
0f
0k
0p
0u
0z
0!"
0&"
0+"
0/"
14"
08"
0<"
0?"
0_
0a
1$
1#
#108000
1a
1f
1k
1p
1u
1z
1!"
1&"
1+"
1/"
13"
18"
1<"
1?"
0$
#111000
16"
b1001 !
b1001 <
0.
15"
17"
0-
0B
1?
1C
0;
0}
1W
0M
1`
14
0|
0b
0f
0k
0p
0u
0z
0~
1!"
0&"
0+"
0/"
03"
08"
0<"
0?"
1_
1{
1$
0#
b1001 &
b1001 (
#114000
1b
1f
1k
1p
1u
1z
1~
1&"
1+"
1/"
13"
18"
1<"
1?"
0$
#117000
06"
b1010 !
b1010 <
1.
00
05"
07"
12"
1-
04"
1B
11"
0C
0`
0/
0?
1;
0f
0k
0p
0u
0z
0~
0&"
0+"
0/"
13"
18"
0<"
0?"
0_
0a
1$
1#
#120000
1a
1f
1k
1p
1u
1z
1~
1&"
1+"
1/"
14"
17"
1<"
1?"
0$
#123000
1.
12"
b1010 !
b1010 <
06"
00
0B
18"
0W
1M
11"
13"
1C
05"
04
0/
1?
1-
0S
1}
0;
0$"
1V
0L
0!"
1`
13
1|
0#"
0b
0f
0k
0p
0u
0z
0%"
1&"
0+"
0/"
04"
07"
0<"
0?"
1_
0{
1""
1$
0#
b1010 &
b1010 (
#126000
1b
1f
1k
1p
1u
1z
1!"
1%"
1+"
1/"
14"
17"
1<"
1?"
0$
#129000
02"
b1011 !
b1011 <
10
01"
03"
0`
1/
0?
1;
0f
0k
0p
0u
0z
0!"
0%"
0+"
0/"
14"
07"
0<"
0?"
0_
0a
1$
1#
#132000
1a
1f
1k
1p
1u
1z
1!"
1%"
1+"
1/"
13"
17"
1<"
1?"
0$
#135000
06"
18"
05"
1-
0B
1?
1S
1C
0;
0}
1W
0M
1`
14
0|
0b
0f
0k
0p
0u
0z
0~
1!"
0%"
0+"
0/"
03"
07"
0<"
0?"
1_
1{
1$
0#
b1011 &
b1011 (
#138000
1b
1f
1k
1p
1u
1z
1~
1%"
1+"
1/"
13"
17"
1<"
1?"
0$
#141000
0.
16"
0:"
b1100 !
b1100 <
08"
1,
00
15"
09"
0;"
12"
0-
1+
04"
1B
1=
11"
0C
0`
1D
0/
0?
1;
0f
0k
0p
0u
0z
0~
0%"
0+"
0/"
13"
17"
1<"
0?"
0_
0a
1$
1#
#144000
1a
1f
1k
1p
1u
1z
1~
1%"
1+"
1/"
14"
18"
1;"
1?"
0$
#147000
0>"
1@"
0="
12"
b1100 !
b1100 <
0:"
1)
0S
00
0B
1<"
0H
0>
0W
1M
0V
1L
0=
11"
13"
1C
09"
1I
0E
04
03
0D
0/
1?
1+
1Q
0R
1}
1$"
0;
0)"
1U
0K
0!"
0&"
1`
12
1|
1#"
0("
0b
0f
0k
0p
0u
0z
0*"
1+"
0/"
04"
08"
0;"
0?"
1_
0{
0""
1'"
1$
0#
b1100 &
b1100 (
#150000
1b
1f
1k
1p
1u
1z
1!"
1&"
1*"
1/"
14"
18"
1;"
1?"
0$
#153000
02"
b1101 !
b1101 <
10
01"
03"
0`
1/
0?
1;
0f
0k
0p
0u
0z
0!"
0&"
0*"
0/"
14"
08"
0;"
0?"
0_
0a
1$
1#
#156000
1a
1f
1k
1p
1u
1z
1!"
1&"
1*"
1/"
13"
18"
1;"
1?"
0$
#159000
16"
b1101 !
b1101 <
0.
15"
17"
0-
0B
1?
1C
0;
0}
1W
0M
1`
14
0|
0b
0f
0k
0p
0u
0z
0~
1!"
0&"
0*"
0/"
03"
08"
0;"
0?"
1_
1{
1$
0#
b1101 &
b1101 (
#162000
1b
1f
1k
1p
1u
1z
1~
1&"
1*"
1/"
13"
18"
1;"
1?"
0$
#165000
06"
b1110 !
b1110 <
1.
00
05"
07"
12"
1-
04"
1B
11"
0C
0`
0/
0?
1;
0f
0k
0p
0u
0z
0~
0&"
0*"
0/"
13"
18"
0;"
0?"
0_
0a
1$
1#
#168000
1a
1f
1k
1p
1u
1z
1~
1&"
1*"
1/"
14"
17"
1;"
1?"
0$
#171000
0>"
1@"
1.
0="
12"
b1110 !
b1110 <
06"
1)
00
0B
18"
0>
0H
0W
1M
11"
13"
1C
05"
0E
1I
04
0/
1?
1-
1R
0S
1}
0;
0$"
1V
0L
0!"
1`
13
1|
0#"
0b
0f
0k
0p
0u
0z
0%"
1&"
0*"
0/"
04"
07"
0;"
0?"
1_
0{
1""
1$
0#
b1110 &
b1110 (
#174000
1b
1f
1k
1p
1u
1z
1!"
1%"
1*"
1/"
14"
17"
1;"
1?"
0$
#177000
02"
b1111 !
b1111 <
10
01"
03"
0`
1/
0?
1;
0f
0k
0p
0u
0z
0!"
0%"
0*"
0/"
14"
07"
0;"
0?"
0_
0a
1$
1#
#180000
1a
1f
1k
1p
1u
1z
1!"
1%"
1*"
1/"
13"
17"
1;"
1?"
0$
#183000
0>"
1@"
06"
0="
18"
1)
05"
0>
1H
1-
0E
0I
0B
1?
1S
1C
0;
0}
1W
0M
1`
14
0|
0b
0f
0k
0p
0u
0z
0~
1!"
0%"
0*"
0/"
03"
07"
0;"
0?"
1_
1{
1$
0#
b1111 &
b1111 (
#186000
1b
1f
1k
1p
1u
1z
1~
1%"
1*"
1/"
13"
17"
1;"
1?"
0$
#189000
0*
1>"
0.
0@"
0,
16"
1="
1:"
08"
0)
0d
1"
b0 !
b0 <
0<"
00
15"
1>
1:
19"
12"
0-
1E
0c
0e
0+
04"
1B
19
1=
11"
0C
0`
1G
1D
0/
0?
1;
1f
0k
0p
0u
0z
0~
0%"
0*"
0/"
13"
17"
1;"
1?"
0_
0a
1$
1#
#192000
1a
1e
1k
1p
1u
1z
1~
1%"
1*"
1/"
14"
18"
1<"
1@"
0$
#195000
02"
1:"
1>"
0"
b1 !
b1 <
0:
10
0=
0,
0*
0H
1d
0>
0@
01"
03"
19"
1;"
1="
1?"
1I
0f
0E
1A
1/
0S
0+
0R
0)
0Q
1c
0B
0F
0V
1L
0U
1K
0T
1J
09
1C
0P
04
03
02
01
0G
0D
1?
1\
1}
1$"
1)"
1."
0;
0i
1W
1[
0!"
0&"
0+"
00"
1`
18
1|
1#"
1("
1-"
0h
0b
1e
0j
1k
0p
0u
0z
14"
08"
0<"
0@"
1_
0{
0""
0'"
0,"
1g
1$
0#
b0 &
b0 (
b1 %
b1 '
#198000
1b
1f
1j
1p
1u
1z
1!"
1&"
1+"
10"
13"
18"
1<"
1@"
0$
#201000
06"
b10 !
b10 <
1.
00
05"
07"
12"
1-
04"
1B
11"
0C
0`
0/
0?
1;
0f
0j
0p
0u
0z
0!"
0&"
0+"
00"
13"
18"
0<"
0@"
0_
0a
1$
1#
#204000
1a
1f
1j
1p
1u
1z
1!"
1&"
1+"
10"
14"
17"
1<"
1@"
0$
#207000
1C
1?
0;
0}
0W
0[
1`
14
0|
0b
0f
0j
0p
0u
0z
0~
1!"
0&"
0+"
00"
04"
07"
0<"
0@"
1_
1{
1$
0#
b1 &
b1 (
#210000
1b
1f
1j
1p
1u
1z
1~
1&"
1+"
10"
14"
17"
1<"
1@"
0$
#213000
02"
b11 !
b11 <
10
01"
03"
0C
0`
1/
0?
1;
0f
0j
0p
0u
0z
0~
0&"
0+"
00"
14"
07"
0<"
0@"
0_
0a
1$
1#
#216000
1a
1f
1j
1p
1u
1z
1~
1&"
1+"
10"
13"
17"
1<"
1@"
0$
#219000
1:"
b11 !
b11 <
0,
1.
19"
1;"
02"
06"
0+
14"
0B
18"
0=
1W
1[
01"
1C
05"
0P
04
1/
1?
1-
1\
1S
1}
0;
0$"
1V
0L
0!"
1`
13
1|
0#"
0b
0f
0j
0p
0u
0z
0%"
1&"
0+"
00"
03"
07"
0<"
0@"
1_
0{
1""
1$
0#
b10 &
b10 (
#222000
1b
1f
1j
1p
1u
1z
1!"
1%"
1+"
10"
13"
17"
1<"
1@"
0$
#225000
0.
16"
0:"
b100 !
b100 <
08"
1,
00
15"
09"
0;"
12"
0-
1+
04"
1B
1=
11"
0C
0`
1D
0/
0?
1;
0f
0j
0p
0u
0z
0!"
0%"
0+"
00"
13"
17"
1<"
0@"
0_
0a
1$
1#
#228000
1a
1f
1j
1p
1u
1z
1!"
1%"
1+"
10"
14"
18"
1;"
1@"
0$
#231000
1C
1P
0D
1?
0\
0;
0}
0W
0[
1`
14
0|
0b
0f
0j
0p
0u
0z
0~
1!"
0%"
0+"
00"
04"
08"
0;"
0@"
1_
1{
1$
0#
b11 &
b11 (
#234000
1b
1f
1j
1p
1u
1z
1~
1%"
1+"
10"
14"
18"
1;"
1@"
0$
#237000
02"
b101 !
b101 <
10
01"
03"
0C
0`
1D
1/
0?
1;
0f
0j
0p
0u
0z
0~
0%"
0+"
00"
14"
08"
0;"
0@"
0_
0a
1$
1#
#240000
1a
1f
1j
1p
1u
1z
1~
1%"
1+"
10"
13"
18"
1;"
1@"
0$
#243000
1>"
b101 !
b101 <
0*
0=
1,
1="
1?"
0P
02"
0:"
0)
1\
0S
14"
0B
1<"
0>
1W
1[
0V
1L
01"
1C
09"
0E
04
03
0D
1/
1?
1+
0R
1}
1$"
0;
0)"
1U
0K
0!"
0&"
1`
12
1|
1#"
0("
0b
0f
0j
0p
0u
0z
0*"
1+"
00"
03"
08"
0;"
0@"
1_
0{
0""
1'"
1$
0#
b100 &
b100 (
#246000
1b
1f
1j
1p
1u
1z
1!"
1&"
1*"
10"
13"
18"
1;"
1@"
0$
#249000
06"
b110 !
b110 <
1.
00
05"
07"
12"
1-
04"
1B
11"
0C
0`
0/
0?
1;
0f
0j
0p
0u
0z
0!"
0&"
0*"
00"
13"
18"
0;"
0@"
0_
0a
1$
1#
#252000
1a
1f
1j
1p
1u
1z
1!"
1&"
1*"
10"
14"
17"
1;"
1@"
0$
#255000
1C
1?
0;
0}
0W
0[
1`
14
0|
0b
0f
0j
0p
0u
0z
0~
1!"
0&"
0*"
00"
04"
07"
0;"
0@"
1_
1{
1$
0#
b101 &
b101 (
#258000
1b
1f
1j
1p
1u
1z
1~
1&"
1*"
10"
14"
17"
1;"
1@"
0$
#261000
02"
b111 !
b111 <
10
01"
03"
0C
0`
1/
0?
1;
0f
0j
0p
0u
0z
0~
0&"
0*"
00"
14"
07"
0;"
0@"
0_
0a
1$
1#
#264000
1a
1f
1j
1p
1u
1z
1~
1&"
1*"
10"
13"
17"
1;"
1@"
0$
#267000
1>"
0:"
b111 !
b111 <
0*
1<"
1.
1="
1?"
09"
02"
06"
0)
1+
14"
0B
18"
0>
0=
1W
1[
01"
1C
05"
0E
0P
04
1/
1?
1-
1R
1\
1S
1}
0;
0$"
1V
0L
0!"
1`
13
1|
0#"
0b
0f
0j
0p
0u
0z
0%"
1&"
0*"
00"
03"
07"
0;"
0@"
1_
0{
1""
1$
0#
b110 &
b110 (
#270000
1b
1f
1j
1p
1u
1z
1!"
1%"
1*"
10"
13"
17"
1;"
1@"
0$
#273000
0>"
0.
1*
0,
16"
0="
0?"
1:"
b1000 !
b1000 <
08"
1)
0<"
00
15"
1>
19"
12"
0-
1E
0+
04"
1B
1=
11"
0C
0`
1D
0/
0?
1;
0f
0j
0p
0u
0z
0!"
0%"
0*"
00"
13"
17"
1;"
1@"
0_
0a
1$
1#
#276000
1a
1f
1j
1p
1u
1z
1!"
1%"
1*"
10"
14"
18"
1<"
1?"
0$
#279000
1C
1P
0D
1?
0\
0;
0}
0W
0[
1`
14
0|
0b
0f
0j
0p
0u
0z
0~
1!"
0%"
0*"
00"
04"
08"
0<"
0?"
1_
1{
1$
0#
b111 &
b111 (
#282000
1b
1f
1j
1p
1u
1z
1~
1%"
1*"
10"
14"
18"
1<"
1?"
0$
#285000
02"
b1001 !
b1001 <
10
01"
03"
0C
0`
1D
1/
0?
1;
0f
0j
0p
0u
0z
0~
0%"
0*"
00"
14"
08"
0<"
0?"
0_
0a
1$
1#
#288000
1a
1f
1j
1p
1u
1z
1~
1%"
1*"
10"
13"
18"
1<"
1?"
0$
#291000
1d
0"
0:
1:"
b1001 !
b1001 <
1c
1e
0=
0,
0>
1*
09
0P
19"
1;"
02"
0E
0>"
0@
1\
0S
0+
0R
14"
0B
1@"
1A
0H
1W
1[
0V
1L
0U
1K
01"
1C
0="
0F
1I
04
03
02
0D
1/
1?
1)
0Q
1}
1$"
1)"
0;
0."
1T
0J
0!"
0&"
0+"
1`
11
1|
1#"
1("
0-"
0b
0f
0j
0p
0u
0z
0/"
10"
03"
08"
0<"
0?"
1_
0{
0""
0'"
1,"
1$
0#
b1000 &
b1000 (
#294000
1b
1f
1j
1p
1u
1z
1!"
1&"
1+"
1/"
13"
18"
1<"
1?"
0$
#297000
06"
b1010 !
b1010 <
1.
00
05"
07"
12"
1-
04"
1B
11"
0C
0`
0/
0?
1;
0f
0j
0p
0u
0z
0!"
0&"
0+"
0/"
13"
18"
0<"
0?"
0_
0a
1$
1#
#300000
1a
1f
1j
1p
1u
1z
1!"
1&"
1+"
1/"
14"
17"
1<"
1?"
0$
#303000
1C
1?
0;
0}
0W
0[
1`
14
0|
0b
0f
0j
0p
0u
0z
0~
1!"
0&"
0+"
0/"
04"
07"
0<"
0?"
1_
1{
1$
0#
b1001 &
b1001 (
#306000
1b
1f
1j
1p
1u
1z
1~
1&"
1+"
1/"
14"
17"
1<"
1?"
0$
#309000
02"
b1011 !
b1011 <
10
01"
03"
0C
0`
1/
0?
1;
0f
0j
0p
0u
0z
0~
0&"
0+"
0/"
14"
07"
0<"
0?"
0_
0a
1$
1#
#312000
1a
1f
1j
1p
1u
1z
1~
1&"
1+"
1/"
13"
17"
1<"
1?"
0$
#315000
1:"
b1011 !
b1011 <
0,
1.
19"
1;"
02"
06"
0+
14"
0B
18"
0=
1W
1[
01"
1C
05"
0P
04
1/
1?
1-
1\
1S
1}
0;
0$"
1V
0L
0!"
1`
13
1|
0#"
0b
0f
0j
0p
0u
0z
0%"
1&"
0+"
0/"
03"
07"
0<"
0?"
1_
0{
1""
1$
0#
b1010 &
b1010 (
#318000
1b
1f
1j
1p
1u
1z
1!"
1%"
1+"
1/"
13"
17"
1<"
1?"
0$
#321000
0.
16"
0:"
b1100 !
b1100 <
08"
1,
00
15"
09"
0;"
12"
0-
1+
04"
1B
1=
11"
0C
0`
1D
0/
0?
1;
0f
0j
0p
0u
0z
0!"
0%"
0+"
0/"
13"
17"
1<"
0?"
0_
0a
1$
1#
#324000
1a
1f
1j
1p
1u
1z
1!"
1%"
1+"
1/"
14"
18"
1;"
1?"
0$
#327000
1C
1P
0D
1?
0\
0;
0}
0W
0[
1`
14
0|
0b
0f
0j
0p
0u
0z
0~
1!"
0%"
0+"
0/"
04"
08"
0;"
0?"
1_
1{
1$
0#
b1011 &
b1011 (
#330000
1b
1f
1j
1p
1u
1z
1~
1%"
1+"
1/"
14"
18"
1;"
1?"
0$
